…
---

`symptoms_cases_df`

\vspace{0.2cm}

\tiny
```
# A tibble: 3,217 x 3
      id symptom             id_person
   <dbl> <chr>                   <int>
 1     1 Fieber                      2
 2     2 Geruchssinnsverlust         2
 3     3 Niesen                      2
 4     4 Kopfschmerzen               2
 5     5 Atemnot                     2
 6     6 Husten                      3
 7     7 Geruchssinnsverlust         3
 8     8 Schmerzen                   3
 9     9 Halssschmerz                3
10    10 Kopfschmerzen               3
# … with 3,207 more rows
```
\normalsize

---

`contacts_df`

\vspace{0.2cm}

\tiny
```
# A tibble: 11,589 x 4
      id id_index id_contact is_infection
   <dbl>    <int>      <dbl> <lgl>       
 1     1      117          1 TRUE        
 2     2      342          2 TRUE        
 3     3      289          3 TRUE        
 4     4     1098          5 TRUE        
 5     5     1106          8 TRUE        
 6     6      333         15 TRUE        
 7     7     1369         16 TRUE        
 8     8      897         17 TRUE        
 9     9      185         18 TRUE        
10    10       22         19 TRUE        
# … with 11,579 more rows
```
\normalsize

---

`events_df`

\vspace{0.2cm}

\tiny
```
# A tibble: 69 x 5
      id date       address      longitude latitude
   <int> <date>     <chr>            <dbl>    <dbl>
 1     1 2020-10-17 Braunschweig      10.6     52.3
 2     2 2020-10-05 Braunschweig      10.6     52.3
 3     3 2020-09-19 Braunschweig      10.5     52.2
 4     4 2020-03-13 Braunschweig      10.6     52.3
 5     5 2020-08-07 Braunschweig      10.5     52.3
 6     6 2020-04-09 Braunschweig      10.6     52.3
 7     7 2020-08-04 Braunschweig      10.6     52.3
 8     8 2020-04-18 Braunschweig      10.6     52.3
 9     9 2020-03-31 Braunschweig      10.6     52.3
10    10 2020-08-06 Braunschweig      10.6     52.3
# … with 59 more rows
```
\normalsize

---

`event_participants_df`

\vspace{0.2cm}

\tiny
```
# A tibble: 994 x 3
      id id_event id_participant
   <dbl>    <int>          <dbl>
 1     1        1           1243
 2     2        1          11950
 3     3        1          11951
 4     4        1          11952
 5     5        1          11953
 6     6        1          11954
 7     7        1          11955
 8     8        1          11956
 9     9        1          11957
10    10        1          11958
# … with 984 more rows
```
…
